ON 2014 Macros & Codes/Excel Macros/TRR waveforms/Part 4.csv

"Record Length",10000,"Points",-7.4600001e-008,    4.960625
"Sample Interval",2.00000003e-011,s,-7.4580001e-008,    4.960312
"Trigger Point",3730,"Samples",-7.4560001e-008,        4.96
"Trigger Time",1.41534826e-011,s,-7.4540001e-008,    4.959844
"",,,-7.4520001e-008,    4.959844
"Horizontal Offset",-7.4600001e-008,s,-7.4500001e-008,    4.959687
,,,-7.4480001e-008,    4.959687
,,,-7.4460001e-008,    4.959687
,,,-7.4440001e-008,    4.959687
,,,-7.4420001e-008,    4.959687
,,,-7.4400001e-008,    4.959687
,,,-7.4380001e-008,    4.959844
,,,-7.4360001e-008,        4.96
,,,-7.4340001e-008,    4.960156
,,,-7.4320001e-008,    4.960312
,,,-7.4300001e-008,    4.960625
,,,-7.4280001e-008,    4.960781
,,,-7.4260001e-008,    4.960781
,,,-7.4240001e-008,    4.960781
,,,-7.4220001e-008,    4.960781
,,,-7.4200001e-008,    4.960625
,,,-7.4180001e-008,    4.960312
,,,-7.4160001e-008,        4.96
,,,-7.4140001e-008,    4.959531
,,,-7.4120001e-008,    4.958906
,,,-7.4100001e-008,    4.958437
,,,-7.4080001e-008,    4.957969
,,,-7.4060001e-008,    4.957656
,,,-7.4040001e-008,      4.9575
,,,-7.4020001e-008,      4.9575
,,,-7.4000001e-008,    4.957969
,,,-7.3980001e-008,     4.95875
,,,-7.3960001e-008,        4.96
,,,-7.3940001e-008,    4.961562
,,,-7.3920001e-008,     4.96375
,,,-7.3900001e-008,    4.966562
,,,-7.3880001e-008,    4.969844
,,,-7.3860001e-008,     4.97375
,,,-7.3840001e-008,    4.978125
,,,-7.3820001e-008,    4.982969
,,,-7.3800001e-008,    4.988281
,,,-7.3780001e-008,    4.993906
,,,-7.3760001e-008,           5
,,,-7.3740001e-008,    5.005781
,,,-7.3720001e-008,    5.011562
,,,-7.3700001e-008,    5.017187
,,,-7.3680001e-008,    5.022344
,,,-7.3660001e-008,    5.027187
,,,-7.3640001e-008,    5.031406
,,,-7.3620001e-008,    5.034844
,,,-7.3600001e-008,      5.0375
,,,-7.3580001e-008,    5.039219
,,,-7.3560001e-008,        5.04
,,,-7.3540001e-008,    5.039375
,,,-7.3520001e-008,    5.037656
,,,-7.3500001e-008,    5.035156
,,,-7.3480001e-008,    5.031875
,,,-7.3460001e-008,    5.027812
,,,-7.3440001e-008,    5.022969
,,,-7.3420001e-008,    5.017656
,,,-7.3400001e-008,    5.012031
,,,-7.3380001e-008,    5.005937
,,,-7.3360001e-008,           5
,,,-7.3340001e-008,     4.99375
,,,-7.3320001e-008,    4.987969
,,,-7.3300001e-008,    4.982344
,,,-7.3280001e-008,    4.977344
,,,-7.3260001e-008,    4.972812
,,,-7.3240001e-008,    4.969062
,,,-7.3220001e-008,    4.965781
,,,-7.3200001e-008,    4.963281
,,,-7.3180001e-008,     4.96125
,,,-7.3160001e-008,        4.96
,,,-7.3140001e-008,    4.959062
,,,-7.3120001e-008,     4.95875
,,,-7.3100001e-008,     4.95875
,,,-7.3080001e-008,    4.959062
,,,-7.3060001e-008,    4.959375
,,,-7.3040001e-008,    4.959687
,,,-7.3020001e-008,        4.96
,,,-7.3000001e-008,    4.960156
,,,-7.2980001e-008,    4.960156
,,,-7.2960001e-008,        4.96
,,,-7.2940001e-008,    4.959531
,,,-7.2920001e-008,    4.959062
,,,-7.2900001e-008,    4.958437
,,,-7.2880001e-008,    4.957969
,,,-7.2860001e-008,    4.957344
,,,-7.2840001e-008,    4.957187
,,,-7.2820001e-008,    4.957187
,,,-7.2800001e-008,      4.9575
,,,-7.2780001e-008,    4.958437
,,,-7.2760001e-008,        4.96
,,,-7.2740001e-008,    4.962031
,,,-7.2720001e-008,    4.964844
,,,-7.2700001e-008,    4.968125
,,,-7.2680001e-008,    4.971875
,,,-7.2660001e-008,    4.976094
,,,-7.2640001e-008,    4.980625
,,,-7.2620001e-008,    4.985469
,,,-7.2600001e-008,    4.990312
,,,-7.2580001e-008,    4.995312
,,,-7.2560001e-008,           5
,,,-7.2540001e-008,    5.004219
,,,-7.2520001e-008,    5.007969
,,,-7.2500001e-008,    5.010937
,,,-7.2480001e-008,    5.012812
,,,-7.2460001e-008,    5.013594
,,,-7.2440001e-008,    5.013281
,,,-7.2420001e-008,    5.011719
,,,-7.2400001e-008,    5.008906
,,,-7.2380001e-008,    5.004844
,,,-7.2360001e-008,           5
,,,-7.2340001e-008,    4.994062
,,,-7.2320001e-008,    4.987656
,,,-7.2300001e-008,     4.98125
,,,-7.2280001e-008,       4.975
,,,-7.2260001e-008,    4.969219
,,,-7.2240001e-008,    4.964531
,,,-7.2220001e-008,    4.961094
,,,-7.2200001e-008,    4.959062
,,,-7.2180001e-008,    4.958594
,,,-7.2160001e-008,        4.96
,,,-7.2140001e-008,    4.962969
,,,-7.2120001e-008,    4.967187
,,,-7.2100001e-008,      4.9725
,,,-7.2080001e-008,    4.978437
,,,-7.2060001e-008,    4.984375
,,,-7.2040001e-008,    4.989844
,,,-7.2020001e-008,    4.994531
,,,-7.2000001e-008,    4.997969
,,,-7.1980001e-008,    4.999844
,,,-7.1960001e-008,           5
,,,-7.1940001e-008,    4.997969
,,,-7.1920001e-008,    4.994219
,,,-7.1900001e-008,    4.989375
,,,-7.1880001e-008,    4.983594
,,,-7.1860001e-008,      4.9775
,,,-7.1840001e-008,    4.971562
,,,-7.1820001e-008,    4.966406
,,,-7.1800001e-008,    4.962656
,,,-7.1780001e-008,    4.960312
,,,-7.1760001e-008,        4.96
,,,-7.1740001e-008,    4.961406
,,,-7.1720001e-008,    4.964687
,,,-7.1700001e-008,    4.969375
,,,-7.1680001e-008,    4.975156
,,,-7.1660001e-008,     4.98125
,,,-7.1640001e-008,    4.987344
,,,-7.1620001e-008,    4.992656
,,,-7.1600001e-008,    4.996875
,,,-7.1580001e-008,    4.999375
,,,-7.1560001e-008,           5
,,,-7.1540001e-008,    4.998437
,,,-7.1520001e-008,    4.995156
,,,-7.1500001e-008,    4.990312
,,,-7.1480001e-008,    4.984531
,,,-7.1460001e-008,    4.978281
,,,-7.1440001e-008,    4.972031
,,,-7.1420001e-008,    4.966719
,,,-7.1400001e-008,    4.962656
,,,-7.1380001e-008,    4.960312
,,,-7.1360001e-008,        4.96
,,,-7.1340001e-008,    4.961719
,,,-7.1320001e-008,    4.965469
,,,-7.1300001e-008,    4.970625
,,,-7.1280001e-008,    4.976719
,,,-7.1260001e-008,    4.983281
,,,-7.1240001e-008,    4.989687
,,,-7.1220001e-008,       4.995
,,,-7.1200001e-008,     4.99875
,,,-7.1180001e-008,    5.000469
,,,-7.1160001e-008,           5
,,,-7.11400009e-008,    4.996719
,,,-7.11200009e-008,     4.99125
,,,-7.11000009e-008,    4.983594
,,,-7.10800009e-008,    4.974375
,,,-7.10600009e-008,    4.964062
,,,-7.10400009e-008,    4.953437
,,,-7.10200009e-008,    4.943125
,,,-7.10000009e-008,     4.93375
,,,-7.09800009e-008,    4.925781
,,,-7.09600009e-008,        4.92
,,,-7.09400009e-008,    4.916406
,,,-7.09200009e-008,    4.915312
,,,-7.09000009e-008,    4.916562
,,,-7.08800009e-008,    4.919844
,,,-7.08600009e-008,    4.924844
,,,-7.08400009e-008,    4.931094
,,,-7.08200009e-008,    4.938281
,,,-7.08000009e-008,    4.945781
,,,-7.07800009e-008,    4.953125
,,,-7.07600009e-008,        4.96
,,,-7.07400009e-008,    4.965781
,,,-7.07200009e-008,    4.970469
,,,-7.07000009e-008,    4.973594
,,,-7.06800009e-008,    4.975312
,,,-7.06600009e-008,    4.975625
,,,-7.06400009e-008,    4.974375
,,,-7.06200009e-008,    4.971875
,,,-7.06000009e-008,    4.968594
,,,-7.05800009e-008,    4.964375
,,,-7.05600009e-008,        4.96
,,,-7.05400009e-008,    4.955625
,,,-7.05200009e-008,    4.951562
,,,-7.05000009e-008,    4.948281
,,,-7.04800009e-008,    4.945781
,,,-7.04600009e-008,    4.944531
,,,-7.04400009e-008,    4.944687
,,,-7.04200009e-008,    4.946406
,,,-7.04000009e-008,    4.949531
,,,-7.03800009e-008,    4.954062
,,,-7.03600009e-008,        4.96
,,,-7.03400009e-008,    4.966875
,,,-7.03200009e-008,    4.974531
,,,-7.03000009e-008,    4.982187
,,,-7.02800009e-008,    4.989531
,,,-7.02600009e-008,    4.995937
,,,-7.02400009e-008,    5.000937
,,,-7.02200009e-008,    5.004062
,,,-7.02000009e-008,    5.005156
,,,-7.01800009e-008,     5.00375
,,,-7.01600009e-008,           5
,,,-7.01400009e-008,    4.993594
,,,-7.01200009e-008,    4.985312
,,,-7.01000009e-008,    4.975625
,,,-7.00800009e-008,       4.965
,,,-7.00600009e-008,    4.954062
,,,-7.00400009e-008,    4.943594
,,,-7.00200009e-008,    4.934531
,,,-7.00000009e-008,    4.927187
,,,-6.99800009e-008,    4.922187
,,,-6.99600009e-008,        4.92
,,,-6.99400009e-008,    4.920781
,,,-6.99200009e-008,    4.924531
,,,-6.99000009e-008,    4.930937
,,,-6.98800009e-008,    4.939375
,,,-6.98600009e-008,    4.949531
,,,-6.98400009e-008,    4.960469
,,,-6.98200009e-008,    4.971562
,,,-6.98000009e-008,    4.982187
,,,-6.97800009e-008,    4.991875
,,,-6.97600009e-008,           5
,,,-6.97400009e-008,    5.006094
,,,-6.97200009e-008,    5.010156
,,,-6.97000009e-008,    5.012344
,,,-6.96800009e-008,    5.012656
,,,-6.96600009e-008,    5.011719
,,,-6.96400009e-008,    5.009687
,,,-6.96200009e-008,    5.007187
,,,-6.96000009e-008,    5.004375
,,,-6.95800009e-008,    5.001875
,,,-6.95600009e-008,           5
,,,-6.95400009e-008,    4.998594
,,,-6.95200009e-008,    4.998125
,,,-6.95000009e-008,    4.998281
,,,-6.94800009e-008,    4.999219
,,,-6.94600009e-008,    5.000312
,,,-6.94400009e-008,    5.001406
,,,-6.94200009e-008,    5.002187
,,,-6.94000009e-008,    5.002344
,,,-6.93800009e-008,    5.001719
,,,-6.93600009e-008,           5
,,,-6.93400009e-008,    4.996875
,,,-6.93200009e-008,    4.992812
,,,-6.93000009e-008,    4.988125
,,,-6.92800009e-008,    4.982812
,,,-6.92600009e-008,    4.977344
,,,-6.92400009e-008,    4.972031
,,,-6.92200009e-008,    4.967344
,,,-6.92000009e-008,    4.963594
,,,-6.91800009e-008,    4.961094
,,,-6.91600009e-008,        4.96
,,,-6.91400009e-008,    4.960469
,,,-6.91200009e-008,      4.9625
,,,-6.91000009e-008,    4.965937
,,,-6.90800009e-008,    4.970312
,,,-6.90600009e-008,    4.975469
,,,-6.90400009e-008,    4.980937
,,,-6.90200009e-008,    4.986406
,,,-6.90000009e-008,    4.991562
,,,-6.89800009e-008,     4.99625
,,,-6.89600009e-008,           5
,,,-6.89400009e-008,    5.002344
,,,-6.89200009e-008,     5.00375
,,,-6.89000009e-008,    5.004375
,,,-6.88800009e-008,    5.004062
,,,-6.88600009e-008,    5.003281
,,,-6.88400009e-008,    5.002344
,,,-6.88200009e-008,     5.00125
,,,-6.88000009e-008,    5.000312
,,,-6.87800009e-008,    4.999844
,,,-6.87600009e-008,           5
,,,-6.87400009e-008,    5.000625
,,,-6.87200009e-008,    5.001719
,,,-6.87000009e-008,    5.003125
,,,-6.86800009e-008,    5.004531
,,,-6.86600009e-008,    5.005781
,,,-6.86400009e-008,    5.006562
,,,-6.86200009e-008,    5.006562
,,,-6.86000009e-008,    5.005469
,,,-6.85800009e-008,    5.003281
,,,-6.85600009e-008,           5
,,,-6.85400009e-008,    4.995312
,,,-6.85200009e-008,    4.989844
,,,-6.85000009e-008,     4.98375
,,,-6.84800009e-008,      4.9775
,,,-6.84600009e-008,    4.971562
,,,-6.84400009e-008,     4.96625
,,,-6.84200009e-008,    4.962187
,,,-6.84000009e-008,    4.959687
,,,-6.83800009e-008,    4.958906
,,,-6.83600009e-008,        4.96
,,,-6.83400009e-008,    4.962969
,,,-6.83200009e-008,    4.967656
,,,-6.83000009e-008,    4.973281
,,,-6.82800009e-008,    4.979687
,,,-6.82600009e-008,    4.986094
,,,-6.82400009e-008,    4.991875
,,,-6.82200009e-008,    4.996562
,,,-6.82000009e-008,    4.999687
,,,-6.81800009e-008,    5.000781
,,,-6.81600009e-008,           5
,,,-6.81400009e-008,    4.996875
,,,-6.81200009e-008,    4.992031
,,,-6.81000009e-008,    4.985781
,,,-6.80800009e-008,    4.978906
,,,-6.80600009e-008,    4.972031
,,,-6.80400009e-008,    4.965937
,,,-6.80200009e-008,    4.961094
,,,-6.80000009e-008,    4.958125
,,,-6.79800009e-008,    4.957656
,,,-6.79600009e-008,        4.96
,,,-6.79400009e-008,    4.964844
,,,-6.79200009e-008,    4.972344
,,,-6.79000009e-008,    4.981562
,,,-6.78800009e-008,    4.992187
,,,-6.78600009e-008,    5.003281
,,,-6.78400009e-008,    5.014219
,,,-6.78200009e-008,    5.023906
,,,-6.78000009e-008,    5.031875
,,,-6.77800009e-008,    5.037344
,,,-6.77600009e-008,        5.04
,,,-6.77400009e-008,    5.039062
,,,-6.77200009e-008,    5.035156
,,,-6.77000009e-008,    5.028437
,,,-6.76800009e-008,    5.019531
,,,-6.76600009e-008,    5.009062
,,,-6.76400009e-008,    4.997812
,,,-6.76200009e-008,    4.986562
,,,-6.76000009e-008,    4.976094
,,,-6.75800009e-008,    4.967031
,,,-6.75600009e-008,        4.96
,,,-6.75400009e-008,    4.955469
,,,-6.75200009e-008,     4.95375
,,,-6.75000009e-008,    4.954531
,,,-6.74800009e-008,    4.957656
,,,-6.74600009e-008,    4.962812
,,,-6.74400009e-008,    4.969375
,,,-6.74200009e-008,    4.977031
,,,-6.74000009e-008,       4.985
,,,-6.73800009e-008,    4.992812
,,,-6.73600009e-008,           5
,,,-6.73400009e-008,    5.005781
,,,-6.73200009e-008,    5.010312
,,,-6.73000009e-008,    5.013281
,,,-6.72800009e-008,    5.014844
,,,-6.72600009e-008,    5.014844
,,,-6.72400009e-008,    5.013594
,,,-6.72200009e-008,    5.011094
,,,-6.72000009e-008,    5.007969
,,,-6.71800009e-008,    5.004062
,,,-6.71600009e-008,           5
,,,-6.71400009e-008,    4.995469
,,,-6.71200009e-008,    4.991094
,,,-6.71000009e-008,    4.986875
,,,-6.70800009e-008,    4.982656
,,,-6.70600009e-008,    4.978594
,,,-6.70400009e-008,    4.974687
,,,-6.70200009e-008,    4.970781
,,,-6.70000009e-008,    4.967031
,,,-6.69800009e-008,    4.963437
,,,-6.69600009e-008,        4.96
,,,-6.69400009e-008,    4.956719
,,,-6.69200009e-008,    4.954062
,,,-6.69000009e-008,    4.951719
,,,-6.68800009e-008,        4.95
,,,-6.68600009e-008,    4.949219
,,,-6.68400009e-008,    4.949219
,,,-6.68200009e-008,    4.950312
,,,-6.68000009e-008,      4.9525
,,,-6.67800009e-008,    4.955781
,,,-6.67600009e-008,        4.96
,,,-6.67400009e-008,    4.965312
,,,-6.67200009e-008,    4.971094
,,,-6.67000009e-008,    4.977187
,,,-6.66800009e-008,    4.983125
,,,-6.66600009e-008,    4.988594
,,,-6.66400009e-008,    4.993437
,,,-6.66200009e-008,    4.997187
,,,-6.66000009e-008,    4.999531
,,,-6.65800009e-008,    5.000469
,,,-6.65600009e-008,           5
,,,-6.65400009e-008,    4.997812
,,,-6.65200009e-008,    4.994375
,,,-6.65000009e-008,    4.989844
,,,-6.64800009e-008,    4.984687
,,,-6.64600009e-008,    4.979062
,,,-6.64400009e-008,     4.97375
,,,-6.64200009e-008,     4.96875
,,,-6.64000009e-008,    4.964531
,,,-6.63800009e-008,    4.961562
,,,-6.63600009e-008,        4.96
,,,-6.63400009e-008,    4.959687
,,,-6.63200009e-008,    4.961094
,,,-6.63000009e-008,     4.96375
,,,-6.62800009e-008,      4.9675
,,,-6.62600009e-008,    4.972344
,,,-6.62400009e-008,    4.977812
,,,-6.62200009e-008,    4.983594
,,,-6.62000009e-008,    4.989375
,,,-6.61800009e-008,       4.995
,,,-6.61600009e-008,           5
,,,-6.61400009e-008,    5.004062
,,,-6.61200009e-008,    5.007344
,,,-6.61000009e-008,    5.009375
,,,-6.60800009e-008,    5.010469
,,,-6.60600009e-008,    5.010469
,,,-6.60400009e-008,    5.009531
,,,-6.60200009e-008,    5.007812
,,,-6.60000009e-008,    5.005469
,,,-6.59800009e-008,    5.002812
,,,-6.59600009e-008,           5
,,,-6.59400009e-008,    4.996875
,,,-6.59200009e-008,    4.994062
,,,-6.59000009e-008,    4.991875
,,,-6.58800009e-008,    4.990312
,,,-6.58600009e-008,    4.989687
,,,-6.58400009e-008,    4.989844
,,,-6.58200009e-008,    4.991094
,,,-6.58000009e-008,    4.993281
,,,-6.57800009e-008,     4.99625
,,,-6.57600009e-008,           5
,,,-6.57400009e-008,     5.00375
,,,-6.57200009e-008,    5.007656
,,,-6.57000009e-008,    5.011406
,,,-6.56800009e-008,    5.014219
,,,-6.56600009e-008,    5.016094
,,,-6.56400009e-008,    5.016562
,,,-6.56200009e-008,    5.015312
,,,-6.56000009e-008,    5.012187
,,,-6.55800009e-008,    5.007031
,,,-6.55600009e-008,           5
,,,-6.55400009e-008,    4.990937
,,,-6.55200009e-008,    4.980781
,,,-6.55000009e-008,    4.969687
,,,-6.54800009e-008,    4.958437
,,,-6.54600009e-008,      4.9475
,,,-6.54400009e-008,    4.937812
,,,-6.54200009e-008,    4.929687
,,,-6.54000009e-008,     4.92375
,,,-6.53800009e-008,    4.920469
,,,-6.53600009e-008,        4.92
,,,-6.53400009e-008,    4.922656
,,,-6.53200009e-008,    4.928125
,,,-6.53000009e-008,    4.935781
,,,-6.52800009e-008,    4.945156
,,,-6.52600009e-008,    4.955781
,,,-6.52400009e-008,    4.966562
,,,-6.52200009e-008,    4.977031
,,,-6.52000009e-008,    4.986562
,,,-6.51800009e-008,    4.994219
,,,-6.51600009e-008,           5
,,,-6.51400009e-008,    5.003125
,,,-6.51200009e-008,    5.003594
,,,-6.51000009e-008,    5.001875
,,,-6.50800009e-008,    4.998125
,,,-6.50600009e-008,    4.992656
,,,-6.50400009e-008,    4.986094
,,,-6.50200009e-008,    4.979062
,,,-6.50000009e-008,    4.972031
,,,-6.49800009e-008,    4.965469
,,,-6.49600009e-008,        4.96
,,,-6.49400009e-008,    4.955781
,,,-6.49200009e-008,    4.953125
,,,-6.49000009e-008,    4.951875
,,,-6.48800009e-008,    4.951719
,,,-6.48600009e-008,    4.952656
,,,-6.48400009e-008,    4.954219
,,,-6.48200009e-008,    4.955937
,,,-6.48000009e-008,    4.957656
,,,-6.47800009e-008,    4.959062
,,,-6.47600009e-008,        4.96
,,,-6.47400009e-008,    4.960312
,,,-6.47200009e-008,    4.960156
,,,-6.47000009e-008,    4.959375
,,,-6.46800009e-008,    4.958281
,,,-6.46600009e-008,    4.957031
,,,-6.46400009e-008,    4.956094
,,,-6.46200009e-008,    4.955625
,,,-6.46000009e-008,    4.956094
,,,-6.45800009e-008,      4.9575
,,,-6.45600009e-008,        4.96
,,,-6.45400009e-008,    4.963594
,,,-6.45200009e-008,    4.968125
,,,-6.45000009e-008,    4.973281
,,,-6.44800009e-008,    4.978906
,,,-6.44600009e-008,    4.984531
,,,-6.44400009e-008,    4.989687
,,,-6.44200009e-008,    4.994062
,,,-6.44000009e-008,      4.9975
,,,-6.43800009e-008,    4.999375
,,,-6.43600009e-008,           5
,,,-6.43400009e-008,    4.998594
,,,-6.43200009e-008,    4.995781
,,,-6.43000009e-008,    4.991719
,,,-6.42800009e-008,    4.986719
,,,-6.42600009e-008,     4.98125
,,,-6.42400009e-008,    4.975625
,,,-6.42200009e-008,    4.970469
,,,-6.42000009e-008,    4.965781
,,,-6.41800009e-008,    4.962187
,,,-6.41600009e-008,        4.96
,,,-6.41400009e-008,    4.959219
,,,-6.41200009e-008,        4.96
,,,-6.41000009e-008,    4.962344
,,,-6.40800009e-008,    4.965937
,,,-6.40600009e-008,    4.970625
,,,-6.40400009e-008,    4.976094
,,,-6.40200009e-008,    4.982187
,,,-6.40000009e-008,    4.988281
,,,-6.39800009e-008,    4.994375
,,,-6.39600009e-008,           5
,,,-6.39400009e-008,    5.004531
,,,-6.39200009e-008,    5.008125
,,,-6.39000009e-008,    5.010781
,,,-6.38800009e-008,    5.012187
,,,-6.38600009e-008,      5.0125
,,,-6.38400009e-008,    5.011719
,,,-6.38200009e-008,        5.01
,,,-6.38000009e-008,    5.007344
,,,-6.37800009e-008,    5.003906
,,,-6.37600009e-008,           5
,,,-6.37400009e-008,    4.995469
,,,-6.37200009e-008,    4.990781
,,,-6.37000009e-008,    4.985937
,,,-6.36800009e-008,    4.981406
,,,-6.36600008e-008,    4.976875
,,,-6.36400008e-008,    4.972656
,,,-6.36200008e-008,     4.96875
,,,-6.36000008e-008,    4.965312
,,,-6.35800008e-008,    4.962344
,,,-6.35600008e-008,        4.96
,,,-6.35400008e-008,    4.958125
,,,-6.35200008e-008,    4.956719
,,,-6.35000008e-008,    4.955937
,,,-6.34800008e-008,    4.955625
,,,-6.34600008e-008,    4.955781
,,,-6.34400008e-008,    4.956094
,,,-6.34200008e-008,    4.956875
,,,-6.34000008e-008,    4.957812
,,,-6.33800008e-008,    4.958906
,,,-6.33600008e-008,        4.96
,,,-6.33400008e-008,    4.961094
,,,-6.33200008e-008,    4.962187
,,,-6.33000008e-008,    4.963125
,,,-6.32800008e-008,    4.963594
,,,-6.32600008e-008,    4.963906
,,,-6.32400008e-008,     4.96375
,,,-6.32200008e-008,    4.963281
,,,-6.32000008e-008,      4.9625
,,,-6.31800008e-008,     4.96125
,,,-6.31600008e-008,        4.96
,,,-6.31400008e-008,    4.958594
,,,-6.31200008e-008,    4.957187
,,,-6.31000008e-008,    4.955937
,,,-6.30800008e-008,       4.955
,,,-6.30600008e-008,    4.954375
,,,-6.30400008e-008,    4.954219
,,,-6.30200008e-008,    4.954687
,,,-6.30000008e-008,    4.955781
,,,-6.29800008e-008,      4.9575
,,,-6.29600008e-008,        4.96
,,,-6.29400008e-008,    4.962969
,,,-6.29200008e-008,    4.966562
,,,-6.29000008e-008,    4.970625
,,,-6.28800008e-008,    4.974844
,,,-6.28600008e-008,    4.979375
,,,-6.28400008e-008,    4.983906
,,,-6.28200008e-008,    4.988437
,,,-6.28000008e-008,    4.992656
,,,-6.27800008e-008,    4.996562
,,,-6.27600008e-008,           5
,,,-6.27400008e-008,    5.002656
,,,-6.27200008e-008,    5.004687
,,,-6.27000008e-008,    5.006094
,,,-6.26800008e-008,    5.006875
,,,-6.26600008e-008,    5.006875
,,,-6.26400008e-008,     5.00625
,,,-6.26200008e-008,    5.005156
,,,-6.26000008e-008,     5.00375
,,,-6.25800008e-008,    5.001875
,,,-6.25600008e-008,           5
,,,-6.25400008e-008,    4.997812
,,,-6.25200008e-008,    4.995781
,,,-6.25000008e-008,    4.994062
